module admin

go 1.20

require (
	github.com/joho/godotenv v1.5.1
	github.com/urfave/cli v1.22.14
	google.golang.org/grpc v1.56.2
	google.golang.org/protobuf v1.31.0
	gorm.io/driver/postgres v1.5.2
	gorm.io/gorm v1.25.2
)

require (
	github.com/cpuguy83/go-md2man/v2 v2.0.2 // indirect
	github.com/golang/protobuf v1.5.3 // indirect
	github.com/jackc/pgpassfile v1.0.0 // indirect
	github.com/jackc/pgservicefile v0.0.0-20221227161230-091c0ba34f0a // indirect
	github.com/jackc/pgx/v5 v5.4.1 // indirect
	github.com/jinzhu/inflection v1.0.0 // indirect
	github.com/jinzhu/now v1.1.5 // indirect
	github.com/russross/blackfriday/v2 v2.1.0 // indirect
	golang.org/x/crypto v0.11.0 // indirect
	golang.org/x/net v0.10.0 // indirect
	golang.org/x/sys v0.10.0 // indirect
	golang.org/x/text v0.11.0 // indirect
	google.golang.org/genproto v0.0.0-20230410155749-daa745c078e1 // indirect
)
